[gd_resource type="AudioBusLayout" load_steps=2 format=2]

[sub_resource type="AudioEffectReverb" id=1]

resource_name = "Reverb"
room_size = 0.2
damping = 0.7

[resource]

bus/1/name = "in_truck"
bus/1/solo = false
bus/1/mute = false
bus/1/bypass_fx = false
bus/1/volume_db = 0.0
bus/1/send = "Master"
bus/1/effect/0/effect = SubResource( 1 )
bus/1/effect/0/enabled = true

